﻿week_number,interviews,start_date,end_date
1,6,9/3/20,9/17/20
2,12,9/17/20,9/24/20
3,18,9/24/20,10/1/20
4,24,10/1/20,10/15/20
5,30,10/15/20,10/22/20
6,36,10/22/20,10/29/20
7,42,10/29/20,11/5/20